-----BEGIN PGP MESSAGE-----

hQEMA5CLCvS/tKLpAQf/YW3dIr9M9TnLve6JjFbBvmK/Cw123pOE0bD4SRD7SJDg
dvyfo0lbfsnLaqWVKxu3PLbHX4Z6box2g+aDW8LuUAP4Eo8EBNpjtQBLUs+UaGpJ
qLyh+wjCCf17dF/symqVlq+VVcNrHkVN+QkV/5MgzqD/s+1t9nrfr64lJ8egC5ia
lnJKuPfxpQN757myueJ7ebQh4FlWKh2002wD8dcGMwuNsfFVgTOKLPiGQ9u5woVG
WGtv44RNnFFDE4jQnUDnSWhxQM95/hAxVwLZjlBpd+USpzSPp5rXlNNKAiaqT81o
Q7sGXDzkj7vF1lD9qhnOD5BltL7sJW86Y3Lim7TMs9JSAUHGFXa7A+Yu7L7HeQTb
Iu2bocxYOecj4T/guvYzPeD9ORrc7BnDHVPHM79OYZBTeqfeAHI+UlcieLncVZSD
1kPuKChLhiZr0/vv319hFexFNg==
=8ZKw
-----END PGP MESSAGE-----
